<?xml version="1.0" encoding="UTF-8" standalone="no"?>
<!-- Created with Inkscape (http://www.inkscape.org/) -->
<svg
   xmlns:dc="http://purl.org/dc/elements/1.1/"
   xmlns:cc="http://creativecommons.org/ns#"
   xmlns:rdf="http://www.w3.org/1999/02/22-rdf-syntax-ns#"
   xmlns:svg="http://www.w3.org/2000/svg"
   xmlns="http://www.w3.org/2000/svg"
   xmlns:sodipodi="http://sodipodi.sourceforge.net/DTD/sodipodi-0.dtd"
   xmlns:inkscape="http://www.inkscape.org/namespaces/inkscape"
   width="307.28000pt"
   height="223.89000pt"
   id="svg8621"
   sodipodi:version="0.32"
   inkscape:version="0.46"
   sodipodi:docbase="C:\Programme\Inkscape"
   sodipodi:docname="Relation1111.svg"
   inkscape:output_extension="org.inkscape.output.svg.inkscape">
  <defs
     id="defs3">
    <inkscape:perspective
       sodipodi:type="inkscape:persp3d"
       inkscape:vp_x="0 : 139.93124 : 1"
       inkscape:vp_y="0 : 1000 : 0"
       inkscape:vp_z="384.10001 : 139.93124 : 1"
       inkscape:persp3d-origin="192.05 : 93.287496 : 1"
       id="perspective2392" />
  </defs>
  <sodipodi:namedview
     inkscape:document-units="mm"
     id="base"
     pagecolor="#ffffff"
     bordercolor="#666666"
     borderopacity="1.0"
     inkscape:pageopacity="0.0"
     inkscape:pageshadow="2"
     inkscape:zoom="1.3374553"
     inkscape:cx="195.44984"
     inkscape:cy="151.75781"
     inkscape:current-layer="layer3"
     inkscape:window-width="1016"
     inkscape:window-height="775"
     inkscape:window-x="0"
     inkscape:window-y="35"
     showborder="true"
     showgrid="false"
     borderlayer="true" />
  <metadata
     id="metadata4">
    <rdf:RDF>
      <cc:Work
         rdf:about="">
        <dc:format>image/svg+xml</dc:format>
        <dc:type
           rdf:resource="http://purl.org/dc/dcmitype/StillImage" />
      </cc:Work>
    </rdf:RDF>
  </metadata>
  <g
     inkscape:groupmode="layer"
     id="layer3"
     inkscape:label="black areas"
     style="display:inline" />
  <g
     inkscape:groupmode="layer"
     id="layer2"
     inkscape:label="lines"
     sodipodi:insensitive="true"
     style="display:inline">
    <rect
       style="opacity:1;fill:none;fill-opacity:1;stroke:#dddddd;stroke-width:5.04921246;stroke-miterlimit:4;stroke-dasharray:none;stroke-opacity:1"
       id="rect2395"
       height="274.79257"
       width="379.02979"
       y="2.5291228"
       x="2.5324416" />
    <circle
       transform="matrix(0.842564,0,0,0.840731,-10.2439,-10.5239)"
       style="opacity:1;fill:none;fill-opacity:1;stroke:#222222;stroke-width:6;stroke-miterlimit:4;stroke-dasharray:none;stroke-opacity:1"
       id="circle2397"
       r="120"
       cy="180"
       cx="180"
       sodipodi:cx="180"
       sodipodi:cy="180"
       sodipodi:rx="120"
       sodipodi:ry="120" />
    <circle
       transform="matrix(0.842564,0,0,0.840731,-10.2439,-10.5239)"
       style="opacity:1;fill:none;fill-opacity:1;stroke:#222222;stroke-width:6;stroke-miterlimit:4;stroke-dasharray:none;stroke-opacity:1"
       id="circle2399"
       r="120"
       cy="180"
       cx="300"
       sodipodi:cx="300"
       sodipodi:cy="180"
       sodipodi:rx="120"
       sodipodi:ry="120" />
  </g>
      <text fill="#000000" font-family="Serif" font-size="24" id="svg_1" stroke="#000000" stroke-width="0" text-anchor="middle" x="189.4" xml:space="preserve" y="145.81">A                   C                  B</text>

</svg>
