<?xml version="1.0" encoding="UTF-8"?>
<svg xmlns="http://www.w3.org/2000/svg" height="280" width="380" stroke="#000" stroke-width="5">
 <rect x="2.5" y="2.5" width="375" height="275" fill="#fff"/>
 <circle cx="140" cy="140" r="100" fill="#f55"/>
 <circle cx="240" cy="140" r="100" fill="#f55"/>
 <circle cx="140" cy="140" r="100" fill="none"/>
  <text fill="#000000" font-family="Serif" font-size="24" id="svg_1" stroke="#000000" stroke-width="0" text-anchor="middle" x="189.4" xml:space="preserve" y="145.81">A                   C                  B</text>
</svg>